[
  {
    "id": 0,
    "title": "Webpack",
    "description": "Webpack is an open-source JavaScript module bundler. Its main purpose is to bundle JavaScript files for usage in a browser, yet it is also capable of transforming, bundling, or packaging just about any resource or asset. Webpack takes modules with dependencies and generates static assets representing those modules. "
  },
  {
    "id": 1,
    "title": "React",
    "description": "React is a JavaScript library for building user interfaces. It is maintained by Facebook and a community of individual developers and companies. React can be used as a base in the development of single-page or mobile applications."
  },
  {
    "id": 2,
    "title": "Redux",
    "description": "Redux is an open-source JavaScript library for managing application state. It is most commonly used with libraries such as React or Angular for building user interfaces. Similar to Facebook's Flux architecture, it was created by Dan Abramov and Andrew Clark. "
  },
  {
    "id": 3,
    "title": "React-Redux",
    "description": "Usage with React. From the very beginning, we need to stress that Redux has no relation to React. ... That said, Redux works especially well with libraries like React and Deku because they let you describe UI as a function of state, and Redux emits state updates in response to actions."
  },
  {
    "id": 4,
    "title": "Lodash",
    "description": "Lodash is a JavaScript library which provides utility functions for common programming tasks using the functional programming paradigm."
  },
  {
    "id": 5,
    "title": "Babel",
    "description": "Babel or Babel.js is a free and open-source JavaScript compiler and configurable transpiler used in web development."
  }
]
